CRITICAL - 2021-06-28 00:11:24 --> Object of class stdClass could not be converted to string
#0 /home/sikap/web/vendor/codeigniter4/framework/system/View/View.php(230): include()
#1 /home/sikap/web/vendor/codeigniter4/framework/system/View/View.php(232): CodeIgniter\View\View->CodeIgniter\View\{closure}()
#2 /home/sikap/web/vendor/codeigniter4/framework/system/Common.php(1250): CodeIgniter\View\View->render()
#3 /home/sikap/web/app/Controllers/Bidang.php(126): view()
#4 /home/sikap/web/vendor/codeigniter4/framework/system/CodeIgniter.php(931): App\Controllers\Bidang->desainindustri()
#5 /home/sikap/web/vendor/codeigniter4/framework/system/CodeIgniter.php(439): CodeIgniter\CodeIgniter->runController()
#6 /home/sikap/web/vendor/codeigniter4/framework/system/CodeIgniter.php(339): CodeIgniter\CodeIgniter->handleRequest()
#7 /home/sikap/web/public/index.php(36): CodeIgniter\CodeIgniter->run()
#8 {main}
CRITICAL - 2021-06-28 01:04:32 --> Trying to access array offset on value of type null
#0 /home/sikap/web/app/Controllers/Bidang.php(56): CodeIgniter\Debug\Exceptions->errorHandler()
#1 /home/sikap/web/vendor/codeigniter4/framework/system/CodeIgniter.php(931): App\Controllers\Bidang->addDesainIndustri()
#2 /home/sikap/web/vendor/codeigniter4/framework/system/CodeIgniter.php(439): CodeIgniter\CodeIgniter->runController()
#3 /home/sikap/web/vendor/codeigniter4/framework/system/CodeIgniter.php(339): CodeIgniter\CodeIgniter->handleRequest()
#4 /home/sikap/web/public/index.php(36): CodeIgniter\CodeIgniter->run()
#5 {main}
CRITICAL - 2021-06-28 02:41:27 --> Undefined index: jenis
#0 /home/sikap/web/app/Views/page/m_sub_unsur.php(45): CodeIgniter\Debug\Exceptions->errorHandler()
#1 /home/sikap/web/vendor/codeigniter4/framework/system/View/View.php(230): include('/home/sikap/web...')
#2 /home/sikap/web/vendor/codeigniter4/framework/system/View/View.php(232): CodeIgniter\View\View->CodeIgniter\View\{closure}()
#3 /home/sikap/web/vendor/codeigniter4/framework/system/Common.php(1250): CodeIgniter\View\View->render()
#4 /home/sikap/web/app/Views/web.php(43): view()
#5 /home/sikap/web/vendor/codeigniter4/framework/system/View/View.php(230): include('/home/sikap/web...')
#6 /home/sikap/web/vendor/codeigniter4/framework/system/View/View.php(232): CodeIgniter\View\View->CodeIgniter\View\{closure}()
#7 /home/sikap/web/vendor/codeigniter4/framework/system/Common.php(1250): CodeIgniter\View\View->render()
#8 /home/sikap/web/app/Controllers/M_sub_unsur.php(23): view()
#9 /home/sikap/web/vendor/codeigniter4/framework/system/CodeIgniter.php(931): App\Controllers\M_sub_unsur->index()
#10 /home/sikap/web/vendor/codeigniter4/framework/system/CodeIgniter.php(439): CodeIgniter\CodeIgniter->runController()
#11 /home/sikap/web/vendor/codeigniter4/framework/system/CodeIgniter.php(339): CodeIgniter\CodeIgniter->handleRequest()
#12 /home/sikap/web/public/index.php(36): CodeIgniter\CodeIgniter->run()
#13 {main}
CRITICAL - 2021-06-28 03:23:31 --> Undefined index: idjeninsunsur
#0 /home/sikap/web/app/Views/page/m_sub_unsur_edit.php(45): CodeIgniter\Debug\Exceptions->errorHandler()
#1 /home/sikap/web/vendor/codeigniter4/framework/system/View/View.php(230): include('/home/sikap/web...')
#2 /home/sikap/web/vendor/codeigniter4/framework/system/View/View.php(232): CodeIgniter\View\View->CodeIgniter\View\{closure}()
#3 /home/sikap/web/vendor/codeigniter4/framework/system/Common.php(1250): CodeIgniter\View\View->render()
#4 /home/sikap/web/app/Views/web.php(43): view()
#5 /home/sikap/web/vendor/codeigniter4/framework/system/View/View.php(230): include('/home/sikap/web...')
#6 /home/sikap/web/vendor/codeigniter4/framework/system/View/View.php(232): CodeIgniter\View\View->CodeIgniter\View\{closure}()
#7 /home/sikap/web/vendor/codeigniter4/framework/system/Common.php(1250): CodeIgniter\View\View->render()
#8 /home/sikap/web/app/Controllers/M_sub_unsur.php(69): view()
#9 /home/sikap/web/vendor/codeigniter4/framework/system/CodeIgniter.php(931): App\Controllers\M_sub_unsur->edit()
#10 /home/sikap/web/vendor/codeigniter4/framework/system/CodeIgniter.php(439): CodeIgniter\CodeIgniter->runController()
#11 /home/sikap/web/vendor/codeigniter4/framework/system/CodeIgniter.php(339): CodeIgniter\CodeIgniter->handleRequest()
#12 /home/sikap/web/public/index.php(36): CodeIgniter\CodeIgniter->run()
#13 {main}
CRITICAL - 2021-06-28 03:23:46 --> Undefined index: idjeninsunsur
#0 /home/sikap/web/app/Views/page/m_sub_unsur_edit.php(45): CodeIgniter\Debug\Exceptions->errorHandler()
#1 /home/sikap/web/vendor/codeigniter4/framework/system/View/View.php(230): include('/home/sikap/web...')
#2 /home/sikap/web/vendor/codeigniter4/framework/system/View/View.php(232): CodeIgniter\View\View->CodeIgniter\View\{closure}()
#3 /home/sikap/web/vendor/codeigniter4/framework/system/Common.php(1250): CodeIgniter\View\View->render()
#4 /home/sikap/web/app/Views/web.php(43): view()
#5 /home/sikap/web/vendor/codeigniter4/framework/system/View/View.php(230): include('/home/sikap/web...')
#6 /home/sikap/web/vendor/codeigniter4/framework/system/View/View.php(232): CodeIgniter\View\View->CodeIgniter\View\{closure}()
#7 /home/sikap/web/vendor/codeigniter4/framework/system/Common.php(1250): CodeIgniter\View\View->render()
#8 /home/sikap/web/app/Controllers/M_sub_unsur.php(69): view()
#9 /home/sikap/web/vendor/codeigniter4/framework/system/CodeIgniter.php(931): App\Controllers\M_sub_unsur->edit()
#10 /home/sikap/web/vendor/codeigniter4/framework/system/CodeIgniter.php(439): CodeIgniter\CodeIgniter->runController()
#11 /home/sikap/web/vendor/codeigniter4/framework/system/CodeIgniter.php(339): CodeIgniter\CodeIgniter->handleRequest()
#12 /home/sikap/web/public/index.php(36): CodeIgniter\CodeIgniter->run()
#13 {main}
CRITICAL - 2021-06-28 03:25:50 --> Undefined index: idjeninsunsur
#0 /home/sikap/web/app/Views/page/m_sub_unsur_edit.php(46): CodeIgniter\Debug\Exceptions->errorHandler()
#1 /home/sikap/web/vendor/codeigniter4/framework/system/View/View.php(230): include('/home/sikap/web...')
#2 /home/sikap/web/vendor/codeigniter4/framework/system/View/View.php(232): CodeIgniter\View\View->CodeIgniter\View\{closure}()
#3 /home/sikap/web/vendor/codeigniter4/framework/system/Common.php(1250): CodeIgniter\View\View->render()
#4 /home/sikap/web/app/Views/web.php(43): view()
#5 /home/sikap/web/vendor/codeigniter4/framework/system/View/View.php(230): include('/home/sikap/web...')
#6 /home/sikap/web/vendor/codeigniter4/framework/system/View/View.php(232): CodeIgniter\View\View->CodeIgniter\View\{closure}()
#7 /home/sikap/web/vendor/codeigniter4/framework/system/Common.php(1250): CodeIgniter\View\View->render()
#8 /home/sikap/web/app/Controllers/M_sub_unsur.php(69): view()
#9 /home/sikap/web/vendor/codeigniter4/framework/system/CodeIgniter.php(931): App\Controllers\M_sub_unsur->edit()
#10 /home/sikap/web/vendor/codeigniter4/framework/system/CodeIgniter.php(439): CodeIgniter\CodeIgniter->runController()
#11 /home/sikap/web/vendor/codeigniter4/framework/system/CodeIgniter.php(339): CodeIgniter\CodeIgniter->handleRequest()
#12 /home/sikap/web/public/index.php(36): CodeIgniter\CodeIgniter->run()
#13 {main}
CRITICAL - 2021-06-28 04:20:55 --> Undefined variable: ju
#0 /home/sikap/web/app/Views/page/m_kegiatan_edit.php(48): CodeIgniter\Debug\Exceptions->errorHandler()
#1 /home/sikap/web/vendor/codeigniter4/framework/system/View/View.php(230): include('/home/sikap/web...')
#2 /home/sikap/web/vendor/codeigniter4/framework/system/View/View.php(232): CodeIgniter\View\View->CodeIgniter\View\{closure}()
#3 /home/sikap/web/vendor/codeigniter4/framework/system/Common.php(1250): CodeIgniter\View\View->render()
#4 /home/sikap/web/app/Views/web.php(43): view()
#5 /home/sikap/web/vendor/codeigniter4/framework/system/View/View.php(230): include('/home/sikap/web...')
#6 /home/sikap/web/vendor/codeigniter4/framework/system/View/View.php(232): CodeIgniter\View\View->CodeIgniter\View\{closure}()
#7 /home/sikap/web/vendor/codeigniter4/framework/system/Common.php(1250): CodeIgniter\View\View->render()
#8 /home/sikap/web/app/Controllers/M_kegiatan.php(76): view()
#9 /home/sikap/web/vendor/codeigniter4/framework/system/CodeIgniter.php(931): App\Controllers\M_kegiatan->edit()
#10 /home/sikap/web/vendor/codeigniter4/framework/system/CodeIgniter.php(439): CodeIgniter\CodeIgniter->runController()
#11 /home/sikap/web/vendor/codeigniter4/framework/system/CodeIgniter.php(339): CodeIgniter\CodeIgniter->handleRequest()
#12 /home/sikap/web/public/index.php(36): CodeIgniter\CodeIgniter->run()
#13 {main}
CRITICAL - 2021-06-28 04:42:18 --> Cannot use object of type stdClass as array
#0 /home/sikap/web/vendor/codeigniter4/framework/system/View/View.php(230): include()
#1 /home/sikap/web/vendor/codeigniter4/framework/system/View/View.php(232): CodeIgniter\View\View->CodeIgniter\View\{closure}()
#2 /home/sikap/web/vendor/codeigniter4/framework/system/Common.php(1250): CodeIgniter\View\View->render()
#3 /home/sikap/web/app/Controllers/User.php(17): view()
#4 /home/sikap/web/vendor/codeigniter4/framework/system/CodeIgniter.php(931): App\Controllers\User->index()
#5 /home/sikap/web/vendor/codeigniter4/framework/system/CodeIgniter.php(439): CodeIgniter\CodeIgniter->runController()
#6 /home/sikap/web/vendor/codeigniter4/framework/system/CodeIgniter.php(339): CodeIgniter\CodeIgniter->handleRequest()
#7 /home/sikap/web/public/index.php(36): CodeIgniter\CodeIgniter->run()
#8 {main}
CRITICAL - 2021-06-28 04:42:33 --> Cannot use object of type stdClass as array
#0 /home/sikap/web/vendor/codeigniter4/framework/system/View/View.php(230): include()
#1 /home/sikap/web/vendor/codeigniter4/framework/system/View/View.php(232): CodeIgniter\View\View->CodeIgniter\View\{closure}()
#2 /home/sikap/web/vendor/codeigniter4/framework/system/Common.php(1250): CodeIgniter\View\View->render()
#3 /home/sikap/web/app/Controllers/User.php(17): view()
#4 /home/sikap/web/vendor/codeigniter4/framework/system/CodeIgniter.php(931): App\Controllers\User->index()
#5 /home/sikap/web/vendor/codeigniter4/framework/system/CodeIgniter.php(439): CodeIgniter\CodeIgniter->runController()
#6 /home/sikap/web/vendor/codeigniter4/framework/system/CodeIgniter.php(339): CodeIgniter\CodeIgniter->handleRequest()
#7 /home/sikap/web/public/index.php(36): CodeIgniter\CodeIgniter->run()
#8 {main}
CRITICAL - 2021-06-28 18:25:16 --> Undefined variable: table
#0 /home/sikap/web/app/Models/Riwayat_dokumen.php(19): CodeIgniter\Debug\Exceptions->errorHandler()
#1 /home/sikap/web/app/Controllers/Bidang.php(78): App\Models\Riwayat_dokumen->updatedata()
#2 /home/sikap/web/vendor/codeigniter4/framework/system/CodeIgniter.php(931): App\Controllers\Bidang->addDesainIndustri()
#3 /home/sikap/web/vendor/codeigniter4/framework/system/CodeIgniter.php(439): CodeIgniter\CodeIgniter->runController()
#4 /home/sikap/web/vendor/codeigniter4/framework/system/CodeIgniter.php(339): CodeIgniter\CodeIgniter->handleRequest()
#5 /home/sikap/web/public/index.php(36): CodeIgniter\CodeIgniter->run()
#6 {main}
CRITICAL - 2021-06-28 18:35:07 --> Undefined variable: base_url
#0 /home/sikap/web/app/Views/bidang/kegiatan.php(185): CodeIgniter\Debug\Exceptions->errorHandler()
#1 /home/sikap/web/vendor/codeigniter4/framework/system/View/View.php(230): include('/home/sikap/web...')
#2 /home/sikap/web/vendor/codeigniter4/framework/system/View/View.php(232): CodeIgniter\View\View->CodeIgniter\View\{closure}()
#3 /home/sikap/web/vendor/codeigniter4/framework/system/Common.php(1250): CodeIgniter\View\View->render()
#4 /home/sikap/web/app/Controllers/Bidang.php(228): view()
#5 /home/sikap/web/vendor/codeigniter4/framework/system/CodeIgniter.php(931): App\Controllers\Bidang->kegiatan()
#6 /home/sikap/web/vendor/codeigniter4/framework/system/CodeIgniter.php(439): CodeIgniter\CodeIgniter->runController()
#7 /home/sikap/web/vendor/codeigniter4/framework/system/CodeIgniter.php(339): CodeIgniter\CodeIgniter->handleRequest()
#8 /home/sikap/web/public/index.php(36): CodeIgniter\CodeIgniter->run()
#9 {main}
CRITICAL - 2021-06-28 18:46:34 --> syntax error, unexpected '$dbRiwayatDokumen' (T_VARIABLE)
#0 /home/sikap/web/vendor/codeigniter4/framework/system/Router/Router.php(169): CodeIgniter\Router\Router->autoRoute()
#1 /home/sikap/web/vendor/codeigniter4/framework/system/CodeIgniter.php(812): CodeIgniter\Router\Router->handle()
#2 /home/sikap/web/vendor/codeigniter4/framework/system/CodeIgniter.php(392): CodeIgniter\CodeIgniter->tryToRouteIt()
#3 /home/sikap/web/vendor/codeigniter4/framework/system/CodeIgniter.php(339): CodeIgniter\CodeIgniter->handleRequest()
#4 /home/sikap/web/public/index.php(36): CodeIgniter\CodeIgniter->run()
#5 {main}
CRITICAL - 2021-06-28 18:49:06 --> Call to undefined method stdClass::getResult()
#0 /home/sikap/web/vendor/codeigniter4/framework/system/CodeIgniter.php(931): App\Controllers\Bidang->desainindustri()
#1 /home/sikap/web/vendor/codeigniter4/framework/system/CodeIgniter.php(439): CodeIgniter\CodeIgniter->runController()
#2 /home/sikap/web/vendor/codeigniter4/framework/system/CodeIgniter.php(339): CodeIgniter\CodeIgniter->handleRequest()
#3 /home/sikap/web/public/index.php(36): CodeIgniter\CodeIgniter->run()
#4 {main}
ERROR - 2021-06-28 19:24:59 --> Column 'idpengajuan' in where clause is ambiguous
CRITICAL - 2021-06-28 19:24:59 --> Column 'idpengajuan' in where clause is ambiguous
#0 /home/sikap/web/vendor/codeigniter4/framework/system/Database/MySQLi/Connection.php(329): mysqli->query()
#1 /home/sikap/web/vendor/codeigniter4/framework/system/Database/BaseConnection.php(732): CodeIgniter\Database\MySQLi\Connection->execute()
#2 /home/sikap/web/vendor/codeigniter4/framework/system/Database/BaseConnection.php(647): CodeIgniter\Database\BaseConnection->simpleQuery()
#3 /home/sikap/web/vendor/codeigniter4/framework/system/Database/BaseBuilder.php(1881): CodeIgniter\Database\BaseConnection->query()
#4 /home/sikap/web/app/Models/Pengajuan.php(20): CodeIgniter\Database\BaseBuilder->get()
#5 /home/sikap/web/app/Controllers/Bidang.php(180): App\Models\Pengajuan->data()
#6 /home/sikap/web/vendor/codeigniter4/framework/system/CodeIgniter.php(931): App\Controllers\Bidang->desainindustri()
#7 /home/sikap/web/vendor/codeigniter4/framework/system/CodeIgniter.php(439): CodeIgniter\CodeIgniter->runController()
#8 /home/sikap/web/vendor/codeigniter4/framework/system/CodeIgniter.php(339): CodeIgniter\CodeIgniter->handleRequest()
#9 /home/sikap/web/public/index.php(36): CodeIgniter\CodeIgniter->run()
#10 {main}
ERROR - 2021-06-28 19:33:03 --> Column 'idpengajuan' in where clause is ambiguous
CRITICAL - 2021-06-28 19:33:03 --> Column 'idpengajuan' in where clause is ambiguous
#0 /home/sikap/web/vendor/codeigniter4/framework/system/Database/MySQLi/Connection.php(329): mysqli->query()
#1 /home/sikap/web/vendor/codeigniter4/framework/system/Database/BaseConnection.php(732): CodeIgniter\Database\MySQLi\Connection->execute()
#2 /home/sikap/web/vendor/codeigniter4/framework/system/Database/BaseConnection.php(647): CodeIgniter\Database\BaseConnection->simpleQuery()
#3 /home/sikap/web/vendor/codeigniter4/framework/system/Database/BaseBuilder.php(1881): CodeIgniter\Database\BaseConnection->query()
#4 /home/sikap/web/app/Models/Pengajuan.php(21): CodeIgniter\Database\BaseBuilder->get()
#5 /home/sikap/web/app/Controllers/Bidang.php(180): App\Models\Pengajuan->data()
#6 /home/sikap/web/vendor/codeigniter4/framework/system/CodeIgniter.php(931): App\Controllers\Bidang->desainindustri()
#7 /home/sikap/web/vendor/codeigniter4/framework/system/CodeIgniter.php(439): CodeIgniter\CodeIgniter->runController()
#8 /home/sikap/web/vendor/codeigniter4/framework/system/CodeIgniter.php(339): CodeIgniter\CodeIgniter->handleRequest()
#9 /home/sikap/web/public/index.php(36): CodeIgniter\CodeIgniter->run()
#10 {main}
ERROR - 2021-06-28 19:33:05 --> Column 'idpengajuan' in where clause is ambiguous
CRITICAL - 2021-06-28 19:33:05 --> Column 'idpengajuan' in where clause is ambiguous
#0 /home/sikap/web/vendor/codeigniter4/framework/system/Database/MySQLi/Connection.php(329): mysqli->query()
#1 /home/sikap/web/vendor/codeigniter4/framework/system/Database/BaseConnection.php(732): CodeIgniter\Database\MySQLi\Connection->execute()
#2 /home/sikap/web/vendor/codeigniter4/framework/system/Database/BaseConnection.php(647): CodeIgniter\Database\BaseConnection->simpleQuery()
#3 /home/sikap/web/vendor/codeigniter4/framework/system/Database/BaseBuilder.php(1881): CodeIgniter\Database\BaseConnection->query()
#4 /home/sikap/web/app/Models/Pengajuan.php(21): CodeIgniter\Database\BaseBuilder->get()
#5 /home/sikap/web/app/Controllers/Bidang.php(180): App\Models\Pengajuan->data()
#6 /home/sikap/web/vendor/codeigniter4/framework/system/CodeIgniter.php(931): App\Controllers\Bidang->desainindustri()
#7 /home/sikap/web/vendor/codeigniter4/framework/system/CodeIgniter.php(439): CodeIgniter\CodeIgniter->runController()
#8 /home/sikap/web/vendor/codeigniter4/framework/system/CodeIgniter.php(339): CodeIgniter\CodeIgniter->handleRequest()
#9 /home/sikap/web/public/index.php(36): CodeIgniter\CodeIgniter->run()
#10 {main}
ERROR - 2021-06-28 19:33:05 --> Column 'idpengajuan' in where clause is ambiguous
CRITICAL - 2021-06-28 19:33:05 --> Column 'idpengajuan' in where clause is ambiguous
#0 /home/sikap/web/vendor/codeigniter4/framework/system/Database/MySQLi/Connection.php(329): mysqli->query()
#1 /home/sikap/web/vendor/codeigniter4/framework/system/Database/BaseConnection.php(732): CodeIgniter\Database\MySQLi\Connection->execute()
#2 /home/sikap/web/vendor/codeigniter4/framework/system/Database/BaseConnection.php(647): CodeIgniter\Database\BaseConnection->simpleQuery()
#3 /home/sikap/web/vendor/codeigniter4/framework/system/Database/BaseBuilder.php(1881): CodeIgniter\Database\BaseConnection->query()
#4 /home/sikap/web/app/Models/Pengajuan.php(21): CodeIgniter\Database\BaseBuilder->get()
#5 /home/sikap/web/app/Controllers/Bidang.php(180): App\Models\Pengajuan->data()
#6 /home/sikap/web/vendor/codeigniter4/framework/system/CodeIgniter.php(931): App\Controllers\Bidang->desainindustri()
#7 /home/sikap/web/vendor/codeigniter4/framework/system/CodeIgniter.php(439): CodeIgniter\CodeIgniter->runController()
#8 /home/sikap/web/vendor/codeigniter4/framework/system/CodeIgniter.php(339): CodeIgniter\CodeIgniter->handleRequest()
#9 /home/sikap/web/public/index.php(36): CodeIgniter\CodeIgniter->run()
#10 {main}
ERROR - 2021-06-28 19:33:05 --> Column 'idpengajuan' in where clause is ambiguous
CRITICAL - 2021-06-28 19:33:05 --> Column 'idpengajuan' in where clause is ambiguous
#0 /home/sikap/web/vendor/codeigniter4/framework/system/Database/MySQLi/Connection.php(329): mysqli->query()
#1 /home/sikap/web/vendor/codeigniter4/framework/system/Database/BaseConnection.php(732): CodeIgniter\Database\MySQLi\Connection->execute()
#2 /home/sikap/web/vendor/codeigniter4/framework/system/Database/BaseConnection.php(647): CodeIgniter\Database\BaseConnection->simpleQuery()
#3 /home/sikap/web/vendor/codeigniter4/framework/system/Database/BaseBuilder.php(1881): CodeIgniter\Database\BaseConnection->query()
#4 /home/sikap/web/app/Models/Pengajuan.php(21): CodeIgniter\Database\BaseBuilder->get()
#5 /home/sikap/web/app/Controllers/Bidang.php(180): App\Models\Pengajuan->data()
#6 /home/sikap/web/vendor/codeigniter4/framework/system/CodeIgniter.php(931): App\Controllers\Bidang->desainindustri()
#7 /home/sikap/web/vendor/codeigniter4/framework/system/CodeIgniter.php(439): CodeIgniter\CodeIgniter->runController()
#8 /home/sikap/web/vendor/codeigniter4/framework/system/CodeIgniter.php(339): CodeIgniter\CodeIgniter->handleRequest()
#9 /home/sikap/web/public/index.php(36): CodeIgniter\CodeIgniter->run()
#10 {main}
ERROR - 2021-06-28 19:33:06 --> Column 'idpengajuan' in where clause is ambiguous
CRITICAL - 2021-06-28 19:33:06 --> Column 'idpengajuan' in where clause is ambiguous
#0 /home/sikap/web/vendor/codeigniter4/framework/system/Database/MySQLi/Connection.php(329): mysqli->query()
#1 /home/sikap/web/vendor/codeigniter4/framework/system/Database/BaseConnection.php(732): CodeIgniter\Database\MySQLi\Connection->execute()
#2 /home/sikap/web/vendor/codeigniter4/framework/system/Database/BaseConnection.php(647): CodeIgniter\Database\BaseConnection->simpleQuery()
#3 /home/sikap/web/vendor/codeigniter4/framework/system/Database/BaseBuilder.php(1881): CodeIgniter\Database\BaseConnection->query()
#4 /home/sikap/web/app/Models/Pengajuan.php(21): CodeIgniter\Database\BaseBuilder->get()
#5 /home/sikap/web/app/Controllers/Bidang.php(180): App\Models\Pengajuan->data()
#6 /home/sikap/web/vendor/codeigniter4/framework/system/CodeIgniter.php(931): App\Controllers\Bidang->desainindustri()
#7 /home/sikap/web/vendor/codeigniter4/framework/system/CodeIgniter.php(439): CodeIgniter\CodeIgniter->runController()
#8 /home/sikap/web/vendor/codeigniter4/framework/system/CodeIgniter.php(339): CodeIgniter\CodeIgniter->handleRequest()
#9 /home/sikap/web/public/index.php(36): CodeIgniter\CodeIgniter->run()
#10 {main}
ERROR - 2021-06-28 19:33:06 --> Column 'idpengajuan' in where clause is ambiguous
CRITICAL - 2021-06-28 19:33:06 --> Column 'idpengajuan' in where clause is ambiguous
#0 /home/sikap/web/vendor/codeigniter4/framework/system/Database/MySQLi/Connection.php(329): mysqli->query()
#1 /home/sikap/web/vendor/codeigniter4/framework/system/Database/BaseConnection.php(732): CodeIgniter\Database\MySQLi\Connection->execute()
#2 /home/sikap/web/vendor/codeigniter4/framework/system/Database/BaseConnection.php(647): CodeIgniter\Database\BaseConnection->simpleQuery()
#3 /home/sikap/web/vendor/codeigniter4/framework/system/Database/BaseBuilder.php(1881): CodeIgniter\Database\BaseConnection->query()
#4 /home/sikap/web/app/Models/Pengajuan.php(21): CodeIgniter\Database\BaseBuilder->get()
#5 /home/sikap/web/app/Controllers/Bidang.php(180): App\Models\Pengajuan->data()
#6 /home/sikap/web/vendor/codeigniter4/framework/system/CodeIgniter.php(931): App\Controllers\Bidang->desainindustri()
#7 /home/sikap/web/vendor/codeigniter4/framework/system/CodeIgniter.php(439): CodeIgniter\CodeIgniter->runController()
#8 /home/sikap/web/vendor/codeigniter4/framework/system/CodeIgniter.php(339): CodeIgniter\CodeIgniter->handleRequest()
#9 /home/sikap/web/public/index.php(36): CodeIgniter\CodeIgniter->run()
#10 {main}
ERROR - 2021-06-28 19:33:06 --> Column 'idpengajuan' in where clause is ambiguous
CRITICAL - 2021-06-28 19:33:06 --> Column 'idpengajuan' in where clause is ambiguous
#0 /home/sikap/web/vendor/codeigniter4/framework/system/Database/MySQLi/Connection.php(329): mysqli->query()
#1 /home/sikap/web/vendor/codeigniter4/framework/system/Database/BaseConnection.php(732): CodeIgniter\Database\MySQLi\Connection->execute()
#2 /home/sikap/web/vendor/codeigniter4/framework/system/Database/BaseConnection.php(647): CodeIgniter\Database\BaseConnection->simpleQuery()
#3 /home/sikap/web/vendor/codeigniter4/framework/system/Database/BaseBuilder.php(1881): CodeIgniter\Database\BaseConnection->query()
#4 /home/sikap/web/app/Models/Pengajuan.php(21): CodeIgniter\Database\BaseBuilder->get()
#5 /home/sikap/web/app/Controllers/Bidang.php(180): App\Models\Pengajuan->data()
#6 /home/sikap/web/vendor/codeigniter4/framework/system/CodeIgniter.php(931): App\Controllers\Bidang->desainindustri()
#7 /home/sikap/web/vendor/codeigniter4/framework/system/CodeIgniter.php(439): CodeIgniter\CodeIgniter->runController()
#8 /home/sikap/web/vendor/codeigniter4/framework/system/CodeIgniter.php(339): CodeIgniter\CodeIgniter->handleRequest()
#9 /home/sikap/web/public/index.php(36): CodeIgniter\CodeIgniter->run()
#10 {main}
ERROR - 2021-06-28 19:33:06 --> Column 'idpengajuan' in where clause is ambiguous
CRITICAL - 2021-06-28 19:33:06 --> Column 'idpengajuan' in where clause is ambiguous
#0 /home/sikap/web/vendor/codeigniter4/framework/system/Database/MySQLi/Connection.php(329): mysqli->query()
#1 /home/sikap/web/vendor/codeigniter4/framework/system/Database/BaseConnection.php(732): CodeIgniter\Database\MySQLi\Connection->execute()
#2 /home/sikap/web/vendor/codeigniter4/framework/system/Database/BaseConnection.php(647): CodeIgniter\Database\BaseConnection->simpleQuery()
#3 /home/sikap/web/vendor/codeigniter4/framework/system/Database/BaseBuilder.php(1881): CodeIgniter\Database\BaseConnection->query()
#4 /home/sikap/web/app/Models/Pengajuan.php(21): CodeIgniter\Database\BaseBuilder->get()
#5 /home/sikap/web/app/Controllers/Bidang.php(180): App\Models\Pengajuan->data()
#6 /home/sikap/web/vendor/codeigniter4/framework/system/CodeIgniter.php(931): App\Controllers\Bidang->desainindustri()
#7 /home/sikap/web/vendor/codeigniter4/framework/system/CodeIgniter.php(439): CodeIgniter\CodeIgniter->runController()
#8 /home/sikap/web/vendor/codeigniter4/framework/system/CodeIgniter.php(339): CodeIgniter\CodeIgniter->handleRequest()
#9 /home/sikap/web/public/index.php(36): CodeIgniter\CodeIgniter->run()
#10 {main}
ERROR - 2021-06-28 19:33:06 --> Column 'idpengajuan' in where clause is ambiguous
CRITICAL - 2021-06-28 19:33:06 --> Column 'idpengajuan' in where clause is ambiguous
#0 /home/sikap/web/vendor/codeigniter4/framework/system/Database/MySQLi/Connection.php(329): mysqli->query()
#1 /home/sikap/web/vendor/codeigniter4/framework/system/Database/BaseConnection.php(732): CodeIgniter\Database\MySQLi\Connection->execute()
#2 /home/sikap/web/vendor/codeigniter4/framework/system/Database/BaseConnection.php(647): CodeIgniter\Database\BaseConnection->simpleQuery()
#3 /home/sikap/web/vendor/codeigniter4/framework/system/Database/BaseBuilder.php(1881): CodeIgniter\Database\BaseConnection->query()
#4 /home/sikap/web/app/Models/Pengajuan.php(21): CodeIgniter\Database\BaseBuilder->get()
#5 /home/sikap/web/app/Controllers/Bidang.php(180): App\Models\Pengajuan->data()
#6 /home/sikap/web/vendor/codeigniter4/framework/system/CodeIgniter.php(931): App\Controllers\Bidang->desainindustri()
#7 /home/sikap/web/vendor/codeigniter4/framework/system/CodeIgniter.php(439): CodeIgniter\CodeIgniter->runController()
#8 /home/sikap/web/vendor/codeigniter4/framework/system/CodeIgniter.php(339): CodeIgniter\CodeIgniter->handleRequest()
#9 /home/sikap/web/public/index.php(36): CodeIgniter\CodeIgniter->run()
#10 {main}
ERROR - 2021-06-28 19:33:07 --> Column 'idpengajuan' in where clause is ambiguous
CRITICAL - 2021-06-28 19:33:07 --> Column 'idpengajuan' in where clause is ambiguous
#0 /home/sikap/web/vendor/codeigniter4/framework/system/Database/MySQLi/Connection.php(329): mysqli->query()
#1 /home/sikap/web/vendor/codeigniter4/framework/system/Database/BaseConnection.php(732): CodeIgniter\Database\MySQLi\Connection->execute()
#2 /home/sikap/web/vendor/codeigniter4/framework/system/Database/BaseConnection.php(647): CodeIgniter\Database\BaseConnection->simpleQuery()
#3 /home/sikap/web/vendor/codeigniter4/framework/system/Database/BaseBuilder.php(1881): CodeIgniter\Database\BaseConnection->query()
#4 /home/sikap/web/app/Models/Pengajuan.php(21): CodeIgniter\Database\BaseBuilder->get()
#5 /home/sikap/web/app/Controllers/Bidang.php(180): App\Models\Pengajuan->data()
#6 /home/sikap/web/vendor/codeigniter4/framework/system/CodeIgniter.php(931): App\Controllers\Bidang->desainindustri()
#7 /home/sikap/web/vendor/codeigniter4/framework/system/CodeIgniter.php(439): CodeIgniter\CodeIgniter->runController()
#8 /home/sikap/web/vendor/codeigniter4/framework/system/CodeIgniter.php(339): CodeIgniter\CodeIgniter->handleRequest()
#9 /home/sikap/web/public/index.php(36): CodeIgniter\CodeIgniter->run()
#10 {main}
ERROR - 2021-06-28 19:33:38 --> Column 'idpengajuan' in where clause is ambiguous
CRITICAL - 2021-06-28 19:33:38 --> Column 'idpengajuan' in where clause is ambiguous
#0 /home/sikap/web/vendor/codeigniter4/framework/system/Database/MySQLi/Connection.php(329): mysqli->query()
#1 /home/sikap/web/vendor/codeigniter4/framework/system/Database/BaseConnection.php(732): CodeIgniter\Database\MySQLi\Connection->execute()
#2 /home/sikap/web/vendor/codeigniter4/framework/system/Database/BaseConnection.php(647): CodeIgniter\Database\BaseConnection->simpleQuery()
#3 /home/sikap/web/vendor/codeigniter4/framework/system/Database/BaseBuilder.php(1881): CodeIgniter\Database\BaseConnection->query()
#4 /home/sikap/web/app/Models/Pengajuan.php(21): CodeIgniter\Database\BaseBuilder->get()
#5 /home/sikap/web/app/Controllers/Bidang.php(180): App\Models\Pengajuan->data()
#6 /home/sikap/web/vendor/codeigniter4/framework/system/CodeIgniter.php(931): App\Controllers\Bidang->desainindustri()
#7 /home/sikap/web/vendor/codeigniter4/framework/system/CodeIgniter.php(439): CodeIgniter\CodeIgniter->runController()
#8 /home/sikap/web/vendor/codeigniter4/framework/system/CodeIgniter.php(339): CodeIgniter\CodeIgniter->handleRequest()
#9 /home/sikap/web/public/index.php(36): CodeIgniter\CodeIgniter->run()
#10 {main}
ERROR - 2021-06-28 19:33:48 --> Column 'idpengajuan' in where clause is ambiguous
CRITICAL - 2021-06-28 19:33:48 --> Column 'idpengajuan' in where clause is ambiguous
#0 /home/sikap/web/vendor/codeigniter4/framework/system/Database/MySQLi/Connection.php(329): mysqli->query()
#1 /home/sikap/web/vendor/codeigniter4/framework/system/Database/BaseConnection.php(732): CodeIgniter\Database\MySQLi\Connection->execute()
#2 /home/sikap/web/vendor/codeigniter4/framework/system/Database/BaseConnection.php(647): CodeIgniter\Database\BaseConnection->simpleQuery()
#3 /home/sikap/web/vendor/codeigniter4/framework/system/Database/BaseBuilder.php(1881): CodeIgniter\Database\BaseConnection->query()
#4 /home/sikap/web/app/Models/Pengajuan.php(21): CodeIgniter\Database\BaseBuilder->get()
#5 /home/sikap/web/app/Controllers/Bidang.php(180): App\Models\Pengajuan->data()
#6 /home/sikap/web/vendor/codeigniter4/framework/system/CodeIgniter.php(931): App\Controllers\Bidang->desainindustri()
#7 /home/sikap/web/vendor/codeigniter4/framework/system/CodeIgniter.php(439): CodeIgniter\CodeIgniter->runController()
#8 /home/sikap/web/vendor/codeigniter4/framework/system/CodeIgniter.php(339): CodeIgniter\CodeIgniter->handleRequest()
#9 /home/sikap/web/public/index.php(36): CodeIgniter\CodeIgniter->run()
#10 {main}
ERROR - 2021-06-28 19:33:49 --> Column 'idpengajuan' in where clause is ambiguous
CRITICAL - 2021-06-28 19:33:49 --> Column 'idpengajuan' in where clause is ambiguous
#0 /home/sikap/web/vendor/codeigniter4/framework/system/Database/MySQLi/Connection.php(329): mysqli->query()
#1 /home/sikap/web/vendor/codeigniter4/framework/system/Database/BaseConnection.php(732): CodeIgniter\Database\MySQLi\Connection->execute()
#2 /home/sikap/web/vendor/codeigniter4/framework/system/Database/BaseConnection.php(647): CodeIgniter\Database\BaseConnection->simpleQuery()
#3 /home/sikap/web/vendor/codeigniter4/framework/system/Database/BaseBuilder.php(1881): CodeIgniter\Database\BaseConnection->query()
#4 /home/sikap/web/app/Models/Pengajuan.php(21): CodeIgniter\Database\BaseBuilder->get()
#5 /home/sikap/web/app/Controllers/Bidang.php(180): App\Models\Pengajuan->data()
#6 /home/sikap/web/vendor/codeigniter4/framework/system/CodeIgniter.php(931): App\Controllers\Bidang->desainindustri()
#7 /home/sikap/web/vendor/codeigniter4/framework/system/CodeIgniter.php(439): CodeIgniter\CodeIgniter->runController()
#8 /home/sikap/web/vendor/codeigniter4/framework/system/CodeIgniter.php(339): CodeIgniter\CodeIgniter->handleRequest()
#9 /home/sikap/web/public/index.php(36): CodeIgniter\CodeIgniter->run()
#10 {main}
ERROR - 2021-06-28 19:33:49 --> Column 'idpengajuan' in where clause is ambiguous
CRITICAL - 2021-06-28 19:33:49 --> Column 'idpengajuan' in where clause is ambiguous
#0 /home/sikap/web/vendor/codeigniter4/framework/system/Database/MySQLi/Connection.php(329): mysqli->query()
#1 /home/sikap/web/vendor/codeigniter4/framework/system/Database/BaseConnection.php(732): CodeIgniter\Database\MySQLi\Connection->execute()
#2 /home/sikap/web/vendor/codeigniter4/framework/system/Database/BaseConnection.php(647): CodeIgniter\Database\BaseConnection->simpleQuery()
#3 /home/sikap/web/vendor/codeigniter4/framework/system/Database/BaseBuilder.php(1881): CodeIgniter\Database\BaseConnection->query()
#4 /home/sikap/web/app/Models/Pengajuan.php(21): CodeIgniter\Database\BaseBuilder->get()
#5 /home/sikap/web/app/Controllers/Bidang.php(180): App\Models\Pengajuan->data()
#6 /home/sikap/web/vendor/codeigniter4/framework/system/CodeIgniter.php(931): App\Controllers\Bidang->desainindustri()
#7 /home/sikap/web/vendor/codeigniter4/framework/system/CodeIgniter.php(439): CodeIgniter\CodeIgniter->runController()
#8 /home/sikap/web/vendor/codeigniter4/framework/system/CodeIgniter.php(339): CodeIgniter\CodeIgniter->handleRequest()
#9 /home/sikap/web/public/index.php(36): CodeIgniter\CodeIgniter->run()
#10 {main}
ERROR - 2021-06-28 19:33:50 --> Column 'idpengajuan' in where clause is ambiguous
CRITICAL - 2021-06-28 19:33:50 --> Column 'idpengajuan' in where clause is ambiguous
#0 /home/sikap/web/vendor/codeigniter4/framework/system/Database/MySQLi/Connection.php(329): mysqli->query()
#1 /home/sikap/web/vendor/codeigniter4/framework/system/Database/BaseConnection.php(732): CodeIgniter\Database\MySQLi\Connection->execute()
#2 /home/sikap/web/vendor/codeigniter4/framework/system/Database/BaseConnection.php(647): CodeIgniter\Database\BaseConnection->simpleQuery()
#3 /home/sikap/web/vendor/codeigniter4/framework/system/Database/BaseBuilder.php(1881): CodeIgniter\Database\BaseConnection->query()
#4 /home/sikap/web/app/Models/Pengajuan.php(21): CodeIgniter\Database\BaseBuilder->get()
#5 /home/sikap/web/app/Controllers/Bidang.php(180): App\Models\Pengajuan->data()
#6 /home/sikap/web/vendor/codeigniter4/framework/system/CodeIgniter.php(931): App\Controllers\Bidang->desainindustri()
#7 /home/sikap/web/vendor/codeigniter4/framework/system/CodeIgniter.php(439): CodeIgniter\CodeIgniter->runController()
#8 /home/sikap/web/vendor/codeigniter4/framework/system/CodeIgniter.php(339): CodeIgniter\CodeIgniter->handleRequest()
#9 /home/sikap/web/public/index.php(36): CodeIgniter\CodeIgniter->run()
#10 {main}
ERROR - 2021-06-28 19:34:25 --> Column 'idpengajuan' in where clause is ambiguous
CRITICAL - 2021-06-28 19:34:25 --> Column 'idpengajuan' in where clause is ambiguous
#0 /home/sikap/web/vendor/codeigniter4/framework/system/Database/MySQLi/Connection.php(329): mysqli->query()
#1 /home/sikap/web/vendor/codeigniter4/framework/system/Database/BaseConnection.php(732): CodeIgniter\Database\MySQLi\Connection->execute()
#2 /home/sikap/web/vendor/codeigniter4/framework/system/Database/BaseConnection.php(647): CodeIgniter\Database\BaseConnection->simpleQuery()
#3 /home/sikap/web/vendor/codeigniter4/framework/system/Database/BaseBuilder.php(1881): CodeIgniter\Database\BaseConnection->query()
#4 /home/sikap/web/app/Models/Pengajuan.php(21): CodeIgniter\Database\BaseBuilder->get()
#5 /home/sikap/web/app/Controllers/Bidang.php(180): App\Models\Pengajuan->data()
#6 /home/sikap/web/vendor/codeigniter4/framework/system/CodeIgniter.php(931): App\Controllers\Bidang->desainindustri()
#7 /home/sikap/web/vendor/codeigniter4/framework/system/CodeIgniter.php(439): CodeIgniter\CodeIgniter->runController()
#8 /home/sikap/web/vendor/codeigniter4/framework/system/CodeIgniter.php(339): CodeIgniter\CodeIgniter->handleRequest()
#9 /home/sikap/web/public/index.php(36): CodeIgniter\CodeIgniter->run()
#10 {main}
ERROR - 2021-06-28 19:34:25 --> Column 'idpengajuan' in where clause is ambiguous
CRITICAL - 2021-06-28 19:34:25 --> Column 'idpengajuan' in where clause is ambiguous
#0 /home/sikap/web/vendor/codeigniter4/framework/system/Database/MySQLi/Connection.php(329): mysqli->query()
#1 /home/sikap/web/vendor/codeigniter4/framework/system/Database/BaseConnection.php(732): CodeIgniter\Database\MySQLi\Connection->execute()
#2 /home/sikap/web/vendor/codeigniter4/framework/system/Database/BaseConnection.php(647): CodeIgniter\Database\BaseConnection->simpleQuery()
#3 /home/sikap/web/vendor/codeigniter4/framework/system/Database/BaseBuilder.php(1881): CodeIgniter\Database\BaseConnection->query()
#4 /home/sikap/web/app/Models/Pengajuan.php(21): CodeIgniter\Database\BaseBuilder->get()
#5 /home/sikap/web/app/Controllers/Bidang.php(180): App\Models\Pengajuan->data()
#6 /home/sikap/web/vendor/codeigniter4/framework/system/CodeIgniter.php(931): App\Controllers\Bidang->desainindustri()
#7 /home/sikap/web/vendor/codeigniter4/framework/system/CodeIgniter.php(439): CodeIgniter\CodeIgniter->runController()
#8 /home/sikap/web/vendor/codeigniter4/framework/system/CodeIgniter.php(339): CodeIgniter\CodeIgniter->handleRequest()
#9 /home/sikap/web/public/index.php(36): CodeIgniter\CodeIgniter->run()
#10 {main}
ERROR - 2021-06-28 19:34:26 --> Column 'idpengajuan' in where clause is ambiguous
CRITICAL - 2021-06-28 19:34:26 --> Column 'idpengajuan' in where clause is ambiguous
#0 /home/sikap/web/vendor/codeigniter4/framework/system/Database/MySQLi/Connection.php(329): mysqli->query()
#1 /home/sikap/web/vendor/codeigniter4/framework/system/Database/BaseConnection.php(732): CodeIgniter\Database\MySQLi\Connection->execute()
#2 /home/sikap/web/vendor/codeigniter4/framework/system/Database/BaseConnection.php(647): CodeIgniter\Database\BaseConnection->simpleQuery()
#3 /home/sikap/web/vendor/codeigniter4/framework/system/Database/BaseBuilder.php(1881): CodeIgniter\Database\BaseConnection->query()
#4 /home/sikap/web/app/Models/Pengajuan.php(21): CodeIgniter\Database\BaseBuilder->get()
#5 /home/sikap/web/app/Controllers/Bidang.php(180): App\Models\Pengajuan->data()
#6 /home/sikap/web/vendor/codeigniter4/framework/system/CodeIgniter.php(931): App\Controllers\Bidang->desainindustri()
#7 /home/sikap/web/vendor/codeigniter4/framework/system/CodeIgniter.php(439): CodeIgniter\CodeIgniter->runController()
#8 /home/sikap/web/vendor/codeigniter4/framework/system/CodeIgniter.php(339): CodeIgniter\CodeIgniter->handleRequest()
#9 /home/sikap/web/public/index.php(36): CodeIgniter\CodeIgniter->run()
#10 {main}
ERROR - 2021-06-28 19:34:51 --> Column 'idpengajuan' in where clause is ambiguous
CRITICAL - 2021-06-28 19:34:51 --> Column 'idpengajuan' in where clause is ambiguous
#0 /home/sikap/web/vendor/codeigniter4/framework/system/Database/MySQLi/Connection.php(329): mysqli->query()
#1 /home/sikap/web/vendor/codeigniter4/framework/system/Database/BaseConnection.php(732): CodeIgniter\Database\MySQLi\Connection->execute()
#2 /home/sikap/web/vendor/codeigniter4/framework/system/Database/BaseConnection.php(647): CodeIgniter\Database\BaseConnection->simpleQuery()
#3 /home/sikap/web/vendor/codeigniter4/framework/system/Database/BaseBuilder.php(1881): CodeIgniter\Database\BaseConnection->query()
#4 /home/sikap/web/app/Models/Pengajuan.php(21): CodeIgniter\Database\BaseBuilder->get()
#5 /home/sikap/web/app/Controllers/Bidang.php(180): App\Models\Pengajuan->data()
#6 /home/sikap/web/vendor/codeigniter4/framework/system/CodeIgniter.php(931): App\Controllers\Bidang->desainindustri()
#7 /home/sikap/web/vendor/codeigniter4/framework/system/CodeIgniter.php(439): CodeIgniter\CodeIgniter->runController()
#8 /home/sikap/web/vendor/codeigniter4/framework/system/CodeIgniter.php(339): CodeIgniter\CodeIgniter->handleRequest()
#9 /home/sikap/web/public/index.php(36): CodeIgniter\CodeIgniter->run()
#10 {main}
ERROR - 2021-06-28 19:34:52 --> Column 'idpengajuan' in where clause is ambiguous
CRITICAL - 2021-06-28 19:34:52 --> Column 'idpengajuan' in where clause is ambiguous
#0 /home/sikap/web/vendor/codeigniter4/framework/system/Database/MySQLi/Connection.php(329): mysqli->query()
#1 /home/sikap/web/vendor/codeigniter4/framework/system/Database/BaseConnection.php(732): CodeIgniter\Database\MySQLi\Connection->execute()
#2 /home/sikap/web/vendor/codeigniter4/framework/system/Database/BaseConnection.php(647): CodeIgniter\Database\BaseConnection->simpleQuery()
#3 /home/sikap/web/vendor/codeigniter4/framework/system/Database/BaseBuilder.php(1881): CodeIgniter\Database\BaseConnection->query()
#4 /home/sikap/web/app/Models/Pengajuan.php(21): CodeIgniter\Database\BaseBuilder->get()
#5 /home/sikap/web/app/Controllers/Bidang.php(180): App\Models\Pengajuan->data()
#6 /home/sikap/web/vendor/codeigniter4/framework/system/CodeIgniter.php(931): App\Controllers\Bidang->desainindustri()
#7 /home/sikap/web/vendor/codeigniter4/framework/system/CodeIgniter.php(439): CodeIgniter\CodeIgniter->runController()
#8 /home/sikap/web/vendor/codeigniter4/framework/system/CodeIgniter.php(339): CodeIgniter\CodeIgniter->handleRequest()
#9 /home/sikap/web/public/index.php(36): CodeIgniter\CodeIgniter->run()
#10 {main}
CRITICAL - 2021-06-28 19:40:41 --> Call to undefined method CodeIgniter\Database\MySQLi\Builder::order_by()
#0 /home/sikap/web/app/Controllers/Bidang.php(180): App\Models\Pengajuan->data()
#1 /home/sikap/web/vendor/codeigniter4/framework/system/CodeIgniter.php(931): App\Controllers\Bidang->desainindustri()
#2 /home/sikap/web/vendor/codeigniter4/framework/system/CodeIgniter.php(439): CodeIgniter\CodeIgniter->runController()
#3 /home/sikap/web/vendor/codeigniter4/framework/system/CodeIgniter.php(339): CodeIgniter\CodeIgniter->handleRequest()
#4 /home/sikap/web/public/index.php(36): CodeIgniter\CodeIgniter->run()
#5 {main}
CRITICAL - 2021-06-28 22:10:33 --> Call to undefined method App\Models\Pengajuan::data
#0 /home/sikap/web/app/Controllers/Bidang.php(180): CodeIgniter\Model->__call()
#1 /home/sikap/web/vendor/codeigniter4/framework/system/CodeIgniter.php(931): App\Controllers\Bidang->desainindustri()
#2 /home/sikap/web/vendor/codeigniter4/framework/system/CodeIgniter.php(439): CodeIgniter\CodeIgniter->runController()
#3 /home/sikap/web/vendor/codeigniter4/framework/system/CodeIgniter.php(339): CodeIgniter\CodeIgniter->handleRequest()
#4 /home/sikap/web/public/index.php(36): CodeIgniter\CodeIgniter->run()
#5 {main}
CRITICAL - 2021-06-28 22:31:01 --> Class 'App\Controllers\Riwayat_pengajuan' not found
#0 /home/sikap/web/vendor/codeigniter4/framework/system/CodeIgniter.php(931): App\Controllers\Bidang->usulkandesainindustri()
#1 /home/sikap/web/vendor/codeigniter4/framework/system/CodeIgniter.php(439): CodeIgniter\CodeIgniter->runController()
#2 /home/sikap/web/vendor/codeigniter4/framework/system/CodeIgniter.php(339): CodeIgniter\CodeIgniter->handleRequest()
#3 /home/sikap/web/public/index.php(36): CodeIgniter\CodeIgniter->run()
#4 {main}
CRITICAL - 2021-06-28 22:32:01 --> Declaration of App\Models\Riwayat_pengajuan::update($data, $id) must be compatible with CodeIgniter\Model::update($id = NULL, $data = NULL): bool
#0 [internal function]: CodeIgniter\Debug\Exceptions->shutdownHandler()
#1 {main}
CRITICAL - 2021-06-28 22:33:32 --> Declaration of App\Models\Riwayat_pengajuan::update($data, $id) must be compatible with CodeIgniter\Model::update($id = NULL, $data = NULL): bool
#0 [internal function]: CodeIgniter\Debug\Exceptions->shutdownHandler()
#1 {main}
ERROR - 2021-06-28 22:46:11 --> Table 'esikap.tim_penilai' doesn't exist
CRITICAL - 2021-06-28 22:46:11 --> Table 'esikap.tim_penilai' doesn't exist
#0 /home/sikap/web/vendor/codeigniter4/framework/system/Database/MySQLi/Connection.php(329): mysqli->query()
#1 /home/sikap/web/vendor/codeigniter4/framework/system/Database/BaseConnection.php(732): CodeIgniter\Database\MySQLi\Connection->execute()
#2 /home/sikap/web/vendor/codeigniter4/framework/system/Database/BaseConnection.php(647): CodeIgniter\Database\BaseConnection->simpleQuery()
#3 /home/sikap/web/vendor/codeigniter4/framework/system/Database/BaseBuilder.php(1881): CodeIgniter\Database\BaseConnection->query()
#4 /home/sikap/web/app/Models/Tim_penilai_model.php(67): CodeIgniter\Database\BaseBuilder->get()
#5 /home/sikap/web/app/Controllers/Tim_penilai.php(24): App\Models\Tim_penilai_model->getTim_penilai()
#6 /home/sikap/web/vendor/codeigniter4/framework/system/CodeIgniter.php(931): App\Controllers\Tim_penilai->index()
#7 /home/sikap/web/vendor/codeigniter4/framework/system/CodeIgniter.php(439): CodeIgniter\CodeIgniter->runController()
#8 /home/sikap/web/vendor/codeigniter4/framework/system/CodeIgniter.php(339): CodeIgniter\CodeIgniter->handleRequest()
#9 /home/sikap/web/public/index.php(36): CodeIgniter\CodeIgniter->run()
#10 {main}
ERROR - 2021-06-28 23:18:16 --> Table 'esikap.tim_penilai' doesn't exist
CRITICAL - 2021-06-28 23:18:16 --> Table 'esikap.tim_penilai' doesn't exist
#0 /home/sikap/web/vendor/codeigniter4/framework/system/Database/MySQLi/Connection.php(329): mysqli->query()
#1 /home/sikap/web/vendor/codeigniter4/framework/system/Database/BaseConnection.php(732): CodeIgniter\Database\MySQLi\Connection->execute()
#2 /home/sikap/web/vendor/codeigniter4/framework/system/Database/BaseConnection.php(647): CodeIgniter\Database\BaseConnection->simpleQuery()
#3 /home/sikap/web/vendor/codeigniter4/framework/system/Database/BaseBuilder.php(1881): CodeIgniter\Database\BaseConnection->query()
#4 /home/sikap/web/app/Models/Tim_penilai_model.php(67): CodeIgniter\Database\BaseBuilder->get()
#5 /home/sikap/web/app/Controllers/Tim_penilai.php(24): App\Models\Tim_penilai_model->getTim_penilai()
#6 /home/sikap/web/vendor/codeigniter4/framework/system/CodeIgniter.php(931): App\Controllers\Tim_penilai->index()
#7 /home/sikap/web/vendor/codeigniter4/framework/system/CodeIgniter.php(439): CodeIgniter\CodeIgniter->runController()
#8 /home/sikap/web/vendor/codeigniter4/framework/system/CodeIgniter.php(339): CodeIgniter\CodeIgniter->handleRequest()
#9 /home/sikap/web/public/index.php(36): CodeIgniter\CodeIgniter->run()
#10 {main}
ERROR - 2021-06-28 23:22:58 --> Table 'esikap.tim_penilai' doesn't exist
CRITICAL - 2021-06-28 23:22:58 --> Table 'esikap.tim_penilai' doesn't exist
#0 /home/sikap/web/vendor/codeigniter4/framework/system/Database/MySQLi/Connection.php(329): mysqli->query()
#1 /home/sikap/web/vendor/codeigniter4/framework/system/Database/BaseConnection.php(732): CodeIgniter\Database\MySQLi\Connection->execute()
#2 /home/sikap/web/vendor/codeigniter4/framework/system/Database/BaseConnection.php(647): CodeIgniter\Database\BaseConnection->simpleQuery()
#3 /home/sikap/web/vendor/codeigniter4/framework/system/Database/BaseBuilder.php(1881): CodeIgniter\Database\BaseConnection->query()
#4 /home/sikap/web/app/Models/Tim_penilai_model.php(67): CodeIgniter\Database\BaseBuilder->get()
#5 /home/sikap/web/app/Controllers/Tim_penilai.php(24): App\Models\Tim_penilai_model->getTim_penilai()
#6 /home/sikap/web/vendor/codeigniter4/framework/system/CodeIgniter.php(931): App\Controllers\Tim_penilai->index()
#7 /home/sikap/web/vendor/codeigniter4/framework/system/CodeIgniter.php(439): CodeIgniter\CodeIgniter->runController()
#8 /home/sikap/web/vendor/codeigniter4/framework/system/CodeIgniter.php(339): CodeIgniter\CodeIgniter->handleRequest()
#9 /home/sikap/web/public/index.php(36): CodeIgniter\CodeIgniter->run()
#10 {main}
ERROR - 2021-06-28 23:23:00 --> Table 'esikap.tim_penilai' doesn't exist
CRITICAL - 2021-06-28 23:23:00 --> Table 'esikap.tim_penilai' doesn't exist
#0 /home/sikap/web/vendor/codeigniter4/framework/system/Database/MySQLi/Connection.php(329): mysqli->query()
#1 /home/sikap/web/vendor/codeigniter4/framework/system/Database/BaseConnection.php(732): CodeIgniter\Database\MySQLi\Connection->execute()
#2 /home/sikap/web/vendor/codeigniter4/framework/system/Database/BaseConnection.php(647): CodeIgniter\Database\BaseConnection->simpleQuery()
#3 /home/sikap/web/vendor/codeigniter4/framework/system/Database/BaseBuilder.php(1881): CodeIgniter\Database\BaseConnection->query()
#4 /home/sikap/web/app/Models/Tim_penilai_model.php(67): CodeIgniter\Database\BaseBuilder->get()
#5 /home/sikap/web/app/Controllers/Tim_penilai.php(24): App\Models\Tim_penilai_model->getTim_penilai()
#6 /home/sikap/web/vendor/codeigniter4/framework/system/CodeIgniter.php(931): App\Controllers\Tim_penilai->index()
#7 /home/sikap/web/vendor/codeigniter4/framework/system/CodeIgniter.php(439): CodeIgniter\CodeIgniter->runController()
#8 /home/sikap/web/vendor/codeigniter4/framework/system/CodeIgniter.php(339): CodeIgniter\CodeIgniter->handleRequest()
#9 /home/sikap/web/public/index.php(36): CodeIgniter\CodeIgniter->run()
#10 {main}
CRITICAL - 2021-06-28 23:26:37 --> Undefined variable: h1
#0 /home/sikap/web/app/Views/layout/idar.php(69): CodeIgniter\Debug\Exceptions->errorHandler()
#1 /home/sikap/web/vendor/codeigniter4/framework/system/View/View.php(230): include('/home/sikap/web...')
#2 /home/sikap/web/vendor/codeigniter4/framework/system/View/View.php(232): CodeIgniter\View\View->CodeIgniter\View\{closure}()
#3 /home/sikap/web/vendor/codeigniter4/framework/system/View/View.php(246): CodeIgniter\View\View->render()
#4 /home/sikap/web/vendor/codeigniter4/framework/system/Common.php(1250): CodeIgniter\View\View->render()
#5 /home/sikap/web/app/Controllers/Tim_penilai.php(17): view()
#6 /home/sikap/web/vendor/codeigniter4/framework/system/CodeIgniter.php(931): App\Controllers\Tim_penilai->index()
#7 /home/sikap/web/vendor/codeigniter4/framework/system/CodeIgniter.php(439): CodeIgniter\CodeIgniter->runController()
#8 /home/sikap/web/vendor/codeigniter4/framework/system/CodeIgniter.php(339): CodeIgniter\CodeIgniter->handleRequest()
#9 /home/sikap/web/public/index.php(36): CodeIgniter\CodeIgniter->run()
#10 {main}
